digraph "graKPN.StartC"
{
  edge [fontname="Helvetica",fontsize="10",labelfontname="Helvetica",labelfontsize="10"];
  node [fontname="Helvetica",fontsize="10",shape=record];
  Node0 [label="graKPN.StartC",height=0.2,width=0.4,color="black", fillcolor="grey75", style="filled", fontcolor="black"];
  Node1 -> Node0 [dir="back",color="midnightblue",fontsize="10",style="solid",fontname="Helvetica"];
  Node1 [label="Start",height=0.2,width=0.4,color="black", fillcolor="white", style="filled",URL="$classgra_k_p_n_1_1_start.html"];
}
