digraph "graKPN.Start"
{
  edge [fontname="Helvetica",fontsize="10",labelfontname="Helvetica",labelfontsize="10"];
  node [fontname="Helvetica",fontsize="10",shape=record];
  Node0 [label="graKPN.Start",height=0.2,width=0.4,color="black", fillcolor="grey75", style="filled", fontcolor="black"];
  Node0 -> Node1 [dir="back",color="midnightblue",fontsize="10",style="solid",fontname="Helvetica"];
  Node1 [label="graKPN.StartC",height=0.2,width=0.4,color="black", fillcolor="white", style="filled",URL="$classgra_k_p_n_1_1_start_c.html"];
  Node0 -> Node2 [dir="back",color="midnightblue",fontsize="10",style="solid",fontname="Helvetica"];
  Node2 [label="graKPN.StartS",height=0.2,width=0.4,color="black", fillcolor="white", style="filled",URL="$classgra_k_p_n_1_1_start_s.html"];
}
